{
    "name": "yiisoft/yii2-app-advanced",
    "description": "Yii 2 Advanced Project Template",
    "keywords": ["yii2", "framework", "advanced", "project template"],
    "homepage": "http://www.yiiframework.com/",
    "type": "project",
    "license": "BSD-3-Clause",
    "support": {
        "issues": "https://github.com/yiisoft/yii2/issues?state=open",
        "forum": "http://www.yiiframework.com/forum/",
        "wiki": "http://www.yiiframework.com/wiki/",
        "irc": "irc://irc.freenode.net/yii",
        "source": "https://github.com/yiisoft/yii2"
    },
    "minimum-stability": "stable",
    "require": {
        "php": ">=7.2.0",
        "yiisoft/yii2": "~2.0.0",
        "yiisoft/yii2-bootstrap": "~2.0.0",
        "yiisoft/yii2-swiftmailer": "~2.0.0",
        "c006/yii2-migration-utility": "dev-master",
        "yiisoft/yii2-imagine": "^2.1",
        "kartik-v/yii2-widget-fileinput": "1.0.8",
        "kartik-v/yii2-widget-select2": "2.1.3",
        "yiisoft/yii2-jui": "~2.0.0",
        "yiisoft/yii2-httpclient": "~2.0.0",
        "yii2tech/ar-linkmany": "^1.0",
        "kartik-v/yii2-widget-datepicker": "1.4.4",
        "yii-dream-team/yii2-upload-behavior": "*",
        "yiisoft/yii2-queue": "@dev",
        "yandex-money/yandex-checkout-sdk-php": "*"
    },
    "require-dev": {
        "yiisoft/yii2-debug": "~2.0.0",
        "yiisoft/yii2-gii": "~2.0.0",
        "yiisoft/yii2-faker": "~2.0.0",

        "codeception/base": "^2.2.3",
        "codeception/verify": "~0.3.1"
    },
    "config": {
        "process-timeout": 1800
    },
    "extra": {
        "asset-installer-paths": {
            "npm-asset-library": "vendor/npm",
            "bower-asset-library": "vendor/bower"
        }
    },
    "scripts": {
        "post-install-cmd": "php init --env=Development --overwrite=n"
    }
}
